[
  {
    "distance": 0.0101,
    "thing": "1/3 Cthulu",
    "ranking": 3
  },
  {
    "distance": 0.011000000000000001,
    "thing": "10x Wonder Woman",
    "ranking": 10
  },
  {
    "distance": 0.011179999999999999,
    "thing": "1/10th Mothra",
    "ranking": 10
  },
  {
    "distance": 0.0114,
    "thing": "Giant Ant Man",
    "ranking": 1
  },
  {
    "distance": 0.011999999999999999,
    "thing": "10x Hank Hill",
    "ranking": 10
  },
  {
    "distance": 0.012309,
    "thing": "1/100th Clover",
    "ranking": 100
  },
  {
    "distance": 0.01242,
    "thing": "1/5th Sarlacc",
    "ranking": 5
  },
  {
    "distance": 0.0128,
    "thing": "4x Shelob",
    "ranking": 4
  },
  {
    "distance": 0.014,
    "thing": "10x Shaq",
    "ranking": 10
  },
  {
    "distance": 0.014879999999999999,
    "thing": "1/5th Godzilla",
    "ranking": 5
  },
  {
    "distance": 0.01515,
    "thing": "1/2 Cthulu",
    "ranking": 2
  },
  {
    "distance": 0.015525,
    "thing": "1/4th Sarlacc",
    "ranking": 4
  },
  {
    "distance": 0.016,
    "thing": "5x Shelob",
    "ranking": 5
  },
  {
    "distance": 0.01616,
    "thing": "1/5th Smaug",
    "ranking": 5
  },
  {
    "distance": 0.018,
    "thing": "20x Velma Dinkley",
    "ranking": 20
  },
  {
    "distance": 0.0186,
    "thing": "1/4th Godzilla",
    "ranking": 4
  },
  {
    "distance": 0.018600000000000002,
    "thing": "20x Danny Devito",
    "ranking": 20
  },
  {
    "distance": 0.019,
    "thing": "2x Kraken",
    "ranking": 2
  },
  {
    "distance": 0.0202,
    "thing": "1/4th Smaug",
    "ranking": 4
  },
  {
    "distance": 0.0207,
    "thing": "1/3 Sarlacc",
    "ranking": 3
  },
  {
    "distance": 0.022000000000000002,
    "thing": "20x Wonder Woman",
    "ranking": 20
  },
  {
    "distance": 0.022359999999999998,
    "thing": "1/5th Mothra",
    "ranking": 5
  },
  {
    "distance": 0.0228,
    "thing": "2x Giant Ant Man",
    "ranking": 2
  },
  {
    "distance": 0.023999999999999997,
    "thing": "20x Hank Hill",
    "ranking": 20
  },
  {
    "distance": 0.0245,
    "thing": "50x Stewie Griffin",
    "ranking": 50
  },
  {
    "distance": 0.024618,
    "thing": "1/50th Clover",
    "ranking": 50
  },
  {
    "distance": 0.0248,
    "thing": "1/3 Godzilla",
    "ranking": 3
  },
  {
    "distance": 0.026933333333333333,
    "thing": "1/3 Smaug",
    "ranking": 3
  },
  {
    "distance": 0.02795,
    "thing": "1/4th Mothra",
    "ranking": 4
  },
  {
    "distance": 0.028,
    "thing": "20x Shaq",
    "ranking": 20
  },
  {
    "distance": 0.028499999999999998,
    "thing": "3x Kraken",
    "ranking": 3
  },
  {
    "distance": 0.0303,
    "thing": "Cthulu",
    "ranking": 1
  },
  {
    "distance": 0.03105,
    "thing": "1/2 Sarlacc",
    "ranking": 2
  },
  {
    "distance": 0.032,
    "thing": "10x Shelob",
    "ranking": 10
  },
  {
    "distance": 0.0342,
    "thing": "3x Giant Ant Man",
    "ranking": 3
  },
  {
    "distance": 0.0372,
    "thing": "1/2 Godzilla",
    "ranking": 2
  },
  {
    "distance": 0.03726666666666666,
    "thing": "1/3 Mothra",
    "ranking": 3
  },
  {
    "distance": 0.038,
    "thing": "4x Kraken",
    "ranking": 4
  },
  {
    "distance": 0.0404,
    "thing": "1/2 Smaug",
    "ranking": 2
  },
  {
    "distance": 0.045,
    "thing": "50x Velma Dinkley",
    "ranking": 50
  },
  {
    "distance": 0.0456,
    "thing": "4x Giant Ant Man",
    "ranking": 4
  },
  {
    "distance": 0.0465,
    "thing": "50x Danny Devito",
    "ranking": 50
  },
  {
    "distance": 0.0475,
    "thing": "5x Kraken",
    "ranking": 5
  },
  {
    "distance": 0.049,
    "thing": "100x Stewie Griffin",
    "ranking": 100
  },
  {
    "distance": 0.055,
    "thing": "50x Wonder Woman",
    "ranking": 50
  },
  {
    "distance": 0.0559,
    "thing": "1/2 Mothra",
    "ranking": 2
  },
  {
    "distance": 0.057,
    "thing": "5x Giant Ant Man",
    "ranking": 5
  },
  {
    "distance": 0.06,
    "thing": "50x Hank Hill",
    "ranking": 50
  },
  {
    "distance": 0.0606,
    "thing": "2x Cthulu",
    "ranking": 2
  },
  {
    "distance": 0.061545,
    "thing": "1/20th Clover",
    "ranking": 20
  },
  {
    "distance": 0.0621,
    "thing": "Sarlacc",
    "ranking": 1
  },
  {
    "distance": 0.064,
    "thing": "20x Shelob",
    "ranking": 20
  },
  {
    "distance": 0.06999999999999999,
    "thing": "50x Shaq",
    "ranking": 50
  },
  {
    "distance": 0.0744,
    "thing": "Godzilla",
    "ranking": 1
  },
  {
    "distance": 0.079,
    "thing": "1,000x Tinkerbell",
    "ranking": 1000
  },
  {
    "distance": 0.0808,
    "thing": "Smaug",
    "ranking": 1
  },
  {
    "distance": 0.09,
    "thing": "100x Velma Dinkley",
    "ranking": 100
  },
  {
    "distance": 0.09090000000000001,
    "thing": "3x Cthulu",
    "ranking": 3
  },
  {
    "distance": 0.093,
    "thing": "100x Danny Devito",
    "ranking": 100
  },
  {
    "distance": 0.095,
    "thing": "10x Kraken",
    "ranking": 10
  },
  {
    "distance": 0.11,
    "thing": "100x Wonder Woman",
    "ranking": 100
  },
  {
    "distance": 0.1118,
    "thing": "Mothra",
    "ranking": 1
  },
  {
    "distance": 0.114,
    "thing": "10x Giant Ant Man",
    "ranking": 10
  },
  {
    "distance": 0.12,
    "thing": "100x Hank Hill",
    "ranking": 100
  },
  {
    "distance": 0.1212,
    "thing": "4x Cthulu",
    "ranking": 4
  },
  {
    "distance": 0.12309,
    "thing": "1/10th Clover",
    "ranking": 10
  },
  {
    "distance": 0.1242,
    "thing": "2x Sarlacc",
    "ranking": 2
  },
  {
    "distance": 0.13999999999999999,
    "thing": "100x Shaq",
    "ranking": 100
  },
  {
    "distance": 0.1488,
    "thing": "2x Godzilla",
    "ranking": 2
  },
  {
    "distance": 0.1515,
    "thing": "5x Cthulu",
    "ranking": 5
  },
  {
    "distance": 0.16,
    "thing": "50x Shelob",
    "ranking": 50
  },
  {
    "distance": 0.1616,
    "thing": "2x Smaug",
    "ranking": 2
  },
  {
    "distance": 0.18630000000000002,
    "thing": "3x Sarlacc",
    "ranking": 3
  },
  {
    "distance": 0.19,
    "thing": "20x Kraken",
    "ranking": 20
  },
  {
    "distance": 0.22319999999999998,
    "thing": "3x Godzilla",
    "ranking": 3
  },
  {
    "distance": 0.2236,
    "thing": "2x Mothra",
    "ranking": 2
  },
  {
    "distance": 0.228,
    "thing": "20x Giant Ant Man",
    "ranking": 20
  },
  {
    "distance": 0.2424,
    "thing": "3x Smaug",
    "ranking": 3
  },
  {
    "distance": 0.24618,
    "thing": "1/5th Clover",
    "ranking": 5
  },
  {
    "distance": 0.2484,
    "thing": "4x Sarlacc",
    "ranking": 4
  },
  {
    "distance": 0.2976,
    "thing": "4x Godzilla",
    "ranking": 4
  },
  {
    "distance": 0.303,
    "thing": "10x Cthulu",
    "ranking": 10
  },
  {
    "distance": 0.307725,
    "thing": "1/4th Clover",
    "ranking": 4
  },
  {
    "distance": 0.3105,
    "thing": "5x Sarlacc",
    "ranking": 5
  },
  {
    "distance": 0.32,
    "thing": "100x Shelob",
    "ranking": 100
  },
  {
    "distance": 0.3232,
    "thing": "4x Smaug",
    "ranking": 4
  },
  {
    "distance": 0.3354,
    "thing": "3x Mothra",
    "ranking": 3
  },
  {
    "distance": 0.372,
    "thing": "5x Godzilla",
    "ranking": 5
  },
  {
    "distance": 0.40399999999999997,
    "thing": "5x Smaug",
    "ranking": 5
  },
  {
    "distance": 0.41030000000000005,
    "thing": "1/3 Clover",
    "ranking": 3
  },
  {
    "distance": 0.4472,
    "thing": "4x Mothra",
    "ranking": 4
  },
  {
    "distance": 0.475,
    "thing": "50x Kraken",
    "ranking": 50
  },
  {
    "distance": 0.49,
    "thing": "1,000x Stewie Griffin",
    "ranking": 1000
  },
  {
    "distance": 0.5589999999999999,
    "thing": "5x Mothra",
    "ranking": 5
  },
  {
    "distance": 0.5700000000000001,
    "thing": "50x Giant Ant Man",
    "ranking": 50
  },
  {
    "distance": 0.606,
    "thing": "20x Cthulu",
    "ranking": 20
  },
  {
    "distance": 0.61545,
    "thing": "1/2 Clover",
    "ranking": 2
  },
  {
    "distance": 0.621,
    "thing": "10x Sarlacc",
    "ranking": 10
  },
  {
    "distance": 0.744,
    "thing": "10x Godzilla",
    "ranking": 10
  },
  {
    "distance": 0.7899999999999999,
    "thing": "10,000x Tinkerbell",
    "ranking": 10000
  },
  {
    "distance": 0.8079999999999999,
    "thing": "10x Smaug",
    "ranking": 10
  },
  {
    "distance": 0.9,
    "thing": "1,000x Velma Dinkley",
    "ranking": 1000
  },
  {
    "distance": 0.93,
    "thing": "1,000x Danny Devito",
    "ranking": 1000
  },
  {
    "distance": 0.95,
    "thing": "100x Kraken",
    "ranking": 100
  },
  {
    "distance": 1.1,
    "thing": "1,000x Wonder Woman",
    "ranking": 1000
  },
  {
    "distance": 1.1179999999999999,
    "thing": "10x Mothra",
    "ranking": 10
  },
  {
    "distance": 1.1400000000000001,
    "thing": "100x Giant Ant Man",
    "ranking": 100
  },
  {
    "distance": 1.2,
    "thing": "1,000x Hank Hill",
    "ranking": 1000
  },
  {
    "distance": 1.2309,
    "thing": "Clover",
    "ranking": 1
  },
  {
    "distance": 1.242,
    "thing": "20x Sarlacc",
    "ranking": 20
  },
  {
    "distance": 1.4,
    "thing": "1,000x Shaq",
    "ranking": 1000
  },
  {
    "distance": 1.488,
    "thing": "20x Godzilla",
    "ranking": 20
  },
  {
    "distance": 1.5150000000000001,
    "thing": "50x Cthulu",
    "ranking": 50
  },
  {
    "distance": 1.6159999999999999,
    "thing": "20x Smaug",
    "ranking": 20
  },
  {
    "distance": 2.2359999999999998,
    "thing": "20x Mothra",
    "ranking": 20
  },
  {
    "distance": 2.4618,
    "thing": "2x Clover",
    "ranking": 2
  },
  {
    "distance": 3.0300000000000002,
    "thing": "100x Cthulu",
    "ranking": 100
  },
  {
    "distance": 3.105,
    "thing": "50x Sarlacc",
    "ranking": 50
  },
  {
    "distance": 3.2,
    "thing": "1,000x Shelob",
    "ranking": 1000
  },
  {
    "distance": 3.6927000000000003,
    "thing": "3x Clover",
    "ranking": 3
  },
  {
    "distance": 3.7199999999999998,
    "thing": "50x Godzilla",
    "ranking": 50
  },
  {
    "distance": 4.04,
    "thing": "50x Smaug",
    "ranking": 50
  },
  {
    "distance": 4.8999999999999995,
    "thing": "10,000x Stewie Griffin",
    "ranking": 10000
  },
  {
    "distance": 4.9236,
    "thing": "4x Clover",
    "ranking": 4
  },
  {
    "distance": 5.59,
    "thing": "50x Mothra",
    "ranking": 50
  },
  {
    "distance": 6.1545000000000005,
    "thing": "5x Clover",
    "ranking": 5
  },
  {
    "distance": 6.21,
    "thing": "100x Sarlacc",
    "ranking": 100
  },
  {
    "distance": 7.4399999999999995,
    "thing": "100x Godzilla",
    "ranking": 100
  },
  {
    "distance": 7.8999999999999995,
    "thing": "100,000x Tinkerbell",
    "ranking": 100000
  },
  {
    "distance": 8.08,
    "thing": "100x Smaug",
    "ranking": 100
  },
  {
    "distance": 9,
    "thing": "10,000x Velma Dinkley",
    "ranking": 10000
  },
  {
    "distance": 9.3,
    "thing": "10,000x Danny Devito",
    "ranking": 10000
  },
  {
    "distance": 9.5,
    "thing": "1,000x Kraken",
    "ranking": 1000
  },
  {
    "distance": 11,
    "thing": "10,000x Wonder Woman",
    "ranking": 10000
  },
  {
    "distance": 11.18,
    "thing": "100x Mothra",
    "ranking": 100
  },
  {
    "distance": 11.4,
    "thing": "1,000x Giant Ant Man",
    "ranking": 1000
  },
  {
    "distance": 11.999999999999998,
    "thing": "10,000x Hank Hill",
    "ranking": 10000
  },
  {
    "distance": 12.309000000000001,
    "thing": "10x Clover",
    "ranking": 10
  },
  {
    "distance": 14,
    "thing": "10,000x Shaq",
    "ranking": 10000
  },
  {
    "distance": 24.618000000000002,
    "thing": "20x Clover",
    "ranking": 20
  },
  {
    "distance": 30.3,
    "thing": "1,000x Cthulu",
    "ranking": 1000
  },
  {
    "distance": 32,
    "thing": "10,000x Shelob",
    "ranking": 10000
  },
  {
    "distance": 49,
    "thing": "100,000x Stewie Griffin",
    "ranking": 100000
  },
  {
    "distance": 61.545,
    "thing": "50x Clover",
    "ranking": 50
  },
  {
    "distance": 62.1,
    "thing": "1,000x Sarlacc",
    "ranking": 1000
  },
  {
    "distance": 74.39999999999999,
    "thing": "1,000x Godzilla",
    "ranking": 1000
  },
  {
    "distance": 79,
    "thing": "1,000,000x Tinkerbell",
    "ranking": 1000000
  },
  {
    "distance": 80.8,
    "thing": "1,000x Smaug",
    "ranking": 1000
  },
  {
    "distance": 90,
    "thing": "100,000x Velma Dinkley",
    "ranking": 100000
  },
  {
    "distance": 93,
    "thing": "100,000x Danny Devito",
    "ranking": 100000
  },
  {
    "distance": 95,
    "thing": "10,000x Kraken",
    "ranking": 10000
  },
  {
    "distance": 110,
    "thing": "100,000x Wonder Woman",
    "ranking": 100000
  },
  {
    "distance": 111.8,
    "thing": "1,000x Mothra",
    "ranking": 1000
  },
  {
    "distance": 114,
    "thing": "10,000x Giant Ant Man",
    "ranking": 10000
  },
  {
    "distance": 119.99999999999999,
    "thing": "100,000x Hank Hill",
    "ranking": 100000
  },
  {
    "distance": 123.09,
    "thing": "100x Clover",
    "ranking": 100
  },
  {
    "distance": 140,
    "thing": "100,000x Shaq",
    "ranking": 100000
  },
  {
    "distance": 303,
    "thing": "10,000x Cthulu",
    "ranking": 10000
  },
  {
    "distance": 320,
    "thing": "100,000x Shelob",
    "ranking": 100000
  },
  {
    "distance": 490,
    "thing": "1,000,000x Stewie Griffin",
    "ranking": 1000000
  },
  {
    "distance": 621,
    "thing": "10,000x Sarlacc",
    "ranking": 10000
  },
  {
    "distance": 743.9999999999999,
    "thing": "10,000x Godzilla",
    "ranking": 10000
  },
  {
    "distance": 790,
    "thing": "10,000,000x Tinkerbell",
    "ranking": 10000000
  },
  {
    "distance": 808,
    "thing": "10,000x Smaug",
    "ranking": 10000
  },
  {
    "distance": 900,
    "thing": "1,000,000x Velma Dinkley",
    "ranking": 1000000
  },
  {
    "distance": 930,
    "thing": "1,000,000x Danny Devito",
    "ranking": 1000000
  },
  {
    "distance": 950,
    "thing": "100,000x Kraken",
    "ranking": 100000
  },
  {
    "distance": 1100,
    "thing": "1,000,000x Wonder Woman",
    "ranking": 1000000
  },
  {
    "distance": 1118,
    "thing": "10,000x Mothra",
    "ranking": 10000
  },
  {
    "distance": 1140,
    "thing": "100,000x Giant Ant Man",
    "ranking": 100000
  },
  {
    "distance": 1200,
    "thing": "1,000,000x Hank Hill",
    "ranking": 1000000
  },
  {
    "distance": 1230.9,
    "thing": "1,000x Clover",
    "ranking": 1000
  },
  {
    "distance": 1400,
    "thing": "1,000,000x Shaq",
    "ranking": 1000000
  },
  {
    "distance": 3030,
    "thing": "100,000x Cthulu",
    "ranking": 100000
  },
  {
    "distance": 3200,
    "thing": "1,000,000x Shelob",
    "ranking": 1000000
  },
  {
    "distance": 4900,
    "thing": "10,000,000x Stewie Griffin",
    "ranking": 10000000
  },
  {
    "distance": 6210,
    "thing": "100,000x Sarlacc",
    "ranking": 100000
  },
  {
    "distance": 7439.999999999999,
    "thing": "100,000x Godzilla",
    "ranking": 100000
  },
  {
    "distance": 8080,
    "thing": "100,000x Smaug",
    "ranking": 100000
  },
  {
    "distance": 9000,
    "thing": "10,000,000x Velma Dinkley",
    "ranking": 10000000
  },
  {
    "distance": 9300,
    "thing": "10,000,000x Danny Devito",
    "ranking": 10000000
  },
  {
    "distance": 9500,
    "thing": "1,000,000x Kraken",
    "ranking": 1000000
  },
  {
    "distance": 11000,
    "thing": "10,000,000x Wonder Woman",
    "ranking": 10000000
  },
  {
    "distance": 11180,
    "thing": "100,000x Mothra",
    "ranking": 100000
  },
  {
    "distance": 11400,
    "thing": "1,000,000x Giant Ant Man",
    "ranking": 1000000
  },
  {
    "distance": 11999.999999999998,
    "thing": "10,000,000x Hank Hill",
    "ranking": 10000000
  },
  {
    "distance": 12309.000000000002,
    "thing": "10,000x Clover",
    "ranking": 10000
  },
  {
    "distance": 14000,
    "thing": "10,000,000x Shaq",
    "ranking": 10000000
  },
  {
    "distance": 30300,
    "thing": "1,000,000x Cthulu",
    "ranking": 1000000
  },
  {
    "distance": 32000,
    "thing": "10,000,000x Shelob",
    "ranking": 10000000
  },
  {
    "distance": 62100,
    "thing": "1,000,000x Sarlacc",
    "ranking": 1000000
  },
  {
    "distance": 74400,
    "thing": "1,000,000x Godzilla",
    "ranking": 1000000
  },
  {
    "distance": 80800,
    "thing": "1,000,000x Smaug",
    "ranking": 1000000
  },
  {
    "distance": 95000,
    "thing": "10,000,000x Kraken",
    "ranking": 10000000
  },
  {
    "distance": 111800,
    "thing": "1,000,000x Mothra",
    "ranking": 1000000
  },
  {
    "distance": 114000,
    "thing": "10,000,000x Giant Ant Man",
    "ranking": 10000000
  },
  {
    "distance": 123090.00000000001,
    "thing": "100,000x Clover",
    "ranking": 100000
  },
  {
    "distance": 303000,
    "thing": "10,000,000x Cthulu",
    "ranking": 10000000
  },
  {
    "distance": 621000,
    "thing": "10,000,000x Sarlacc",
    "ranking": 10000000
  },
  {
    "distance": 743999.9999999999,
    "thing": "10,000,000x Godzilla",
    "ranking": 10000000
  },
  {
    "distance": 808000,
    "thing": "10,000,000x Smaug",
    "ranking": 10000000
  },
  {
    "distance": 1118000,
    "thing": "10,000,000x Mothra",
    "ranking": 10000000
  },
  {
    "distance": 1230900,
    "thing": "1,000,000x Clover",
    "ranking": 1000000
  },
  {
    "distance": 12309000.000000002,
    "thing": "10,000,000x Clover",
    "ranking": 10000000
  }
]