0.000079,Tinkerbell
0.00049,Stewie Griffin
0.00090,Velma Dinkley
0.00093,Danny Devito
0.0011,Wonder Woman
0.0012,Hank Hill
0.0014,Shaq
0.0032,Shelob
0.0095,Kraken
0.0808,Smaug
0.0114,Giant Ant Man
0.0303,Cthulu
0.0621,Sarlacc
0.0744,Godzilla
0.1118,Mothra
1.2309,Clover